…
呟かれています。



次はツイートの検索をしてみます。

```
rstats <- search_tweets(q="#rstats", include_rts = FALSE)

> rstats
# A tibble: 100 x 90
   user_id status_id created_at          screen_name text  source
   <chr>   <chr>     <dttm>              <chr>       <chr> <chr>
 1 608336… 12948646… 2020-08-16 05:12:48 Leilanie95  "Reg… Twitt…
 2 103516… 12948634… 2020-08-16 05:08:08 mdsumner    "#rs… Twitt…
 3 103516… 12948097… 2020-08-16 01:34:24 mdsumner    "#rs… Twitt…
 4 103516… 12948187… 2020-08-16 02:10:12 mdsumner    "#rs… Twitt…
 5 103516… 12948135… 2020-08-16 01:49:37 mdsumner    "#rs… Twitt…
 6 120362… 12948287… 2020-08-16 02:50:06 icymi_r     "📦 \… OneUp…
 7 120362… 12947603… 2020-08-15 22:18:08 icymi_r     "✍️🔤… OneUp…
 8 120362… 12947260… 2020-08-15 20:02:06 icymi_r     "✍️⚡… OneUp…
 9 120362… 12947945… 2020-08-16 00:34:19 icymi_r     "✍️🎨… OneUp…
10 120362… 12948630… 2020-08-16 05:06:28 icymi_r     "✍️👥… OneUp…
# … with 90 more rows, and 84 more variables: display_text_width <dbl>, ...
```
…
`create_token()`で上から6つの情報を入れておきます。
そして、作成したtokenを`search_fullarchive()`で呼び出します。と、同時にDev Environmentの名前も必要になります。
ちなみに先ほどの`search_tweets()`と同様にデフォルトでは最大100件までの取得になります。


```
rstats_2019 <- search_fullarchive(q="#rstats", 
			env_name=dev_env,	
            token=twitter_token,
			fromDate="201901010000",
			toDate="201912312359")


> rstats_2019
# A tibble: 100 x 90
   user_id status_id created_at          screen_name text  source
   <chr>   <chr>     <dttm>              <chr>       <chr> <chr>
 1 473324… 12121610… 2019-12-31 23:58:06 grrrck      "As … Twitt…
 2 101181… 12121608… 2019-12-31 23:57:31 rstatstweet "RSt… rstat…
 3 101181… 12121608… 2019-12-31 23:57:31 rstatstweet "\U0… rstat…
 4 101181… 12121608… 2019-12-31 23:57:30 rstatstweet "An … rstat…
 5 101181… 12121531… 2019-12-31 23:26:56 rstatstweet "I w… rstat…
 6 101181… 12121531… 2019-12-31 23:26:56 rstatstweet "Did… rstat…
 7 101181… 12121531… 2019-12-31 23:26:57 rstatstweet "Hap… rstat…
 8 101181… 12121531… 2019-12-31 23:26:56 rstatstweet "A t… rstat…
 9 101181… 12121494… 2019-12-31 23:12:13 rstatstweet "My … rstat…
10 101181… 12121494… 2019-12-31 23:12:13 rstatstweet "My … rstat…
# … with 90 more rows, and 84 more variables: display_text_width <dbl>, ...
```
…
