…
Each column means variables, and each row represents observations.   
On the other hands, "non-tidy data" are like these:

```
table2

#> # A tibble: 12 x 4
#>   country      year type           count
#>   <chr>       <int> <chr>          <int>
#> 1 Afghanistan  1999 cases            745
#> 2 Afghanistan  1999 population  19987071
#> 3 Afghanistan  2000 cases           2666
#> 4 Afghanistan  2000 population  20595360
#> 5 Brazil       1999 cases          37737
#> 6 Brazil       1999 population 172006362
#> # … with 6 more rows
```
…
##### `group_by`
`group_by` function makes groups. 
This function is compatible with `summarize` function.


##### `summarize`
The `summarize` function summarize variables and create a new table of summary statistics.

```
mtcars %>% 
  as_tibble()    # tibble is easy to read and use class because we can confirm all variable's names, numbers of rows and columns, and columns class.


#> # A tibble: 32 x 11
#>    mpg   cyl  disp    hp  drat    wt  qsec    vs    am  gear  carb
#>   <dbl> <dbl> <dbl> <dbl> <dbl> <dbl> <dbl> <dbl> <dbl> <dbl> <dbl>
#> 1  21       6  160    110  3.9   2.62  16.5     0     1     4     4
#> 2  21       6  160    110  3.9   2.88  17.0     0     1     4     4
#> 3  22.8     4  108     93  3.85  2.32  18.6     1     1     4     1
#> 4  21.4     6  258    110  3.08  3.22  19.4     1     0     3     1
#> 5  18.7     8  360    175  3.15  3.44  17.0     0     0     3     2
#> 6  18.1     6  225    105  2.76  3.46  20.2     1     0     3     1
#> 7  14.3     8  360    245  3.21  3.57  15.8     0     0     3     4
#> 8  24.4     4  147.    62  3.69  3.19  20       1     0     4     2
#> 9  22.8     4  141.    95  3.92  3.15  22.9     1     0     4     2
#>10  19.2     6  168.   123  3.92  3.44  18.3     1     0     4     4
#># … with 22 more rows
```
…
## Exercise
Let's enjoy data handling with `tidyverse` !!

<!--
#### sum up  by sp. name
`iris` is famous data in `tidyverse` or R language. 
`iris` includes scientific names and some variabels.

```
iris %>%
  as_tibble()
  
#># A tibble: 150 x 5
#>   Sepal.Length Sepal.Width Petal.Length Petal.Width Species
#>          <dbl>       <dbl>        <dbl>       <dbl> <fct>
#> 1          5.1         3.5          1.4         0.2 setosa
#> 2          4.9         3            1.4         0.2 setosa
#> 3          4.7         3.2          1.3         0.2 setosa
#> 4          4.6         3.1          1.5         0.2 setosa
#> 5          5           3.6          1.4         0.2 setosa
#> 6          5.4         3.9          1.7         0.4 setosa
#> 7          4.6         3.4          1.4         0.3 setosa
#> 8          5           3.4          1.5         0.2 setosa
#> 9          4.4         2.9          1.4         0.2 setosa
#>10          4.9         3.1          1.5         0.1 setosa
#># … with 140 more rows  
```
